…
``` r
oco2_br |> 
    tidyr::pivot_longer(
    dplyr::starts_with("flag"),
    names_to = "região",
    values_to = "flag"
  ) |> 
  dplyr::filter(flag) |> 
  dplyr::mutate(região = stringr::str_remove(região,"flag_")) |> 
  dplyr::group_by(região, ano, mes) |> 
  dplyr::summarise(media_co2 = mean(XCO2, na.rm=TRUE)) |> 
    dplyr::mutate(
    mes_ano = lubridate::make_date(ano, mes, 1)
  )
#> # A tibble: 365 × 5
#> # Groups:   região, ano [35]
#>    região       ano   mes media_co2 mes_ano   
#>    <chr>      <dbl> <dbl>     <dbl> <date>    
#>  1 centroeste  2014     9      386. 2014-09-01
#>  2 centroeste  2014    10      386. 2014-10-01
#>  3 centroeste  2014    11      385. 2014-11-01
#>  4 centroeste  2014    12      382. 2014-12-01
#>  5 centroeste  2015     1      383. 2015-01-01
#>  6 centroeste  2015     2      383. 2015-02-01
#>  7 centroeste  2015     3      382. 2015-03-01
#>  8 centroeste  2015     4      382. 2015-04-01
#>  9 centroeste  2015     5      384. 2015-05-01
#> 10 centroeste  2015     6      386. 2015-06-01
#> # ℹ 355 more rows
```
…
